{
	"partitions" : [
		{
			"name" : "Top",
			"pins" : [
				{
					"name" : "LEDh2f[0]",
					"strict" : false
				},
				{
					"name" : "LEDh2f[1]",
					"strict" : false
				},
				{
					"name" : "LEDh2f[2]",
					"strict" : false
				},
				{
					"name" : "LEDh2f[3]",
					"strict" : false
				},
				{
					"name" : "LEDh2f[4]",
					"strict" : false
				},
				{
					"name" : "LEDlwh2f[0]",
					"strict" : false
				},
				{
					"name" : "LEDlwh2f[1]",
					"strict" : false
				},
				{
					"name" : "LEDlwh2f[2]",
					"strict" : false
				},
				{
					"name" : "LEDlwh2f[3]",
					"strict" : false
				},
				{
					"name" : "LEDlwh2f[4]",
					"strict" : false
				},
				{
					"name" : "xsdram_addr[0]",
					"strict" : false
				},
				{
					"name" : "xsdram_addr[1]",
					"strict" : false
				},
				{
					"name" : "xsdram_addr[2]",
					"strict" : false
				},
				{
					"name" : "xsdram_addr[3]",
					"strict" : false
				},
				{
					"name" : "xsdram_addr[4]",
					"strict" : false
				},
				{
					"name" : "xsdram_addr[5]",
					"strict" : false
				},
				{
					"name" : "xsdram_addr[6]",
					"strict" : false
				},
				{
					"name" : "xsdram_addr[7]",
					"strict" : false
				},
				{
					"name" : "xsdram_addr[8]",
					"strict" : false
				},
				{
					"name" : "xsdram_addr[9]",
					"strict" : false
				},
				{
					"name" : "xsdram_addr[10]",
					"strict" : false
				},
				{
					"name" : "xsdram_addr[11]",
					"strict" : false
				},
				{
					"name" : "xsdram_addr[12]",
					"strict" : false
				},
				{
					"name" : "xsdram_ba[0]",
					"strict" : false
				},
				{
					"name" : "xsdram_ba[1]",
					"strict" : false
				},
				{
					"name" : "xsdram_cas_n",
					"strict" : false
				},
				{
					"name" : "xsdram_cs_n",
					"strict" : false
				},
				{
					"name" : "xsdram_dqm[0]",
					"strict" : false
				},
				{
					"name" : "xsdram_dqm[1]",
					"strict" : false
				},
				{
					"name" : "xsdram_ras_n",
					"strict" : false
				},
				{
					"name" : "xsdram_we_n",
					"strict" : false
				},
				{
					"name" : "xvga_interface_HS",
					"strict" : false
				},
				{
					"name" : "xvga_interface_VS",
					"strict" : false
				},
				{
					"name" : "xvga_interface_BLANK",
					"strict" : false
				},
				{
					"name" : "xvga_interface_R[0]",
					"strict" : false
				},
				{
					"name" : "xvga_interface_R[1]",
					"strict" : false
				},
				{
					"name" : "xvga_interface_R[2]",
					"strict" : false
				},
				{
					"name" : "xvga_interface_R[3]",
					"strict" : false
				},
				{
					"name" : "xvga_interface_R[4]",
					"strict" : false
				},
				{
					"name" : "xvga_interface_R[5]",
					"strict" : false
				},
				{
					"name" : "xvga_interface_R[6]",
					"strict" : false
				},
				{
					"name" : "xvga_interface_R[7]",
					"strict" : false
				},
				{
					"name" : "xvga_interface_G[0]",
					"strict" : false
				},
				{
					"name" : "xvga_interface_G[1]",
					"strict" : false
				},
				{
					"name" : "xvga_interface_G[2]",
					"strict" : false
				},
				{
					"name" : "xvga_interface_G[3]",
					"strict" : false
				},
				{
					"name" : "xvga_interface_G[4]",
					"strict" : false
				},
				{
					"name" : "xvga_interface_G[5]",
					"strict" : false
				},
				{
					"name" : "xvga_interface_G[6]",
					"strict" : false
				},
				{
					"name" : "xvga_interface_G[7]",
					"strict" : false
				},
				{
					"name" : "xvga_interface_B[0]",
					"strict" : false
				},
				{
					"name" : "xvga_interface_B[1]",
					"strict" : false
				},
				{
					"name" : "xvga_interface_B[2]",
					"strict" : false
				},
				{
					"name" : "xvga_interface_B[3]",
					"strict" : false
				},
				{
					"name" : "xvga_interface_B[4]",
					"strict" : false
				},
				{
					"name" : "xvga_interface_B[5]",
					"strict" : false
				},
				{
					"name" : "xvga_interface_B[6]",
					"strict" : false
				},
				{
					"name" : "xvga_interface_B[7]",
					"strict" : false
				},
				{
					"name" : "xsdram_dq[0]",
					"strict" : false
				},
				{
					"name" : "xsdram_dq[1]",
					"strict" : false
				},
				{
					"name" : "xsdram_dq[2]",
					"strict" : false
				},
				{
					"name" : "xsdram_dq[3]",
					"strict" : false
				},
				{
					"name" : "xsdram_dq[4]",
					"strict" : false
				},
				{
					"name" : "xsdram_dq[5]",
					"strict" : false
				},
				{
					"name" : "xsdram_dq[6]",
					"strict" : false
				},
				{
					"name" : "xsdram_dq[7]",
					"strict" : false
				},
				{
					"name" : "xsdram_dq[8]",
					"strict" : false
				},
				{
					"name" : "xsdram_dq[9]",
					"strict" : false
				},
				{
					"name" : "xsdram_dq[10]",
					"strict" : false
				},
				{
					"name" : "xsdram_dq[11]",
					"strict" : false
				},
				{
					"name" : "xsdram_dq[12]",
					"strict" : false
				},
				{
					"name" : "xsdram_dq[13]",
					"strict" : false
				},
				{
					"name" : "xsdram_dq[14]",
					"strict" : false
				},
				{
					"name" : "xsdram_dq[15]",
					"strict" : false
				}
			]
		}
	]
}