+-----------------------------------------------------------------------------------------------------------------------------------------------------------------------------------------------------------------------------------------------------------------------------------------------------------------------------------------+
; Legal Partition Candidates                                                                                                                                                                                                                                                                                                              ;
+------------------------------------------------------------------------------------------------------------------------------------+-------+----------------+--------------+----------------+--------+-----------------+---------------+-----------------+-------+----------------+--------------+------------------+-------------------+
; Hierarchy                                                                                                                          ; Input ; Constant Input ; Unused Input ; Floating Input ; Output ; Constant Output ; Unused Output ; Floating Output ; Bidir ; Constant Bidir ; Unused Bidir ; Input only Bidir ; Output only Bidir ;
+------------------------------------------------------------------------------------------------------------------------------------+-------+----------------+--------------+----------------+--------+-----------------+---------------+-----------------+-------+----------------+--------------+------------------+-------------------+
; h3                                                                                                                                 ; 4     ; 0              ; 0            ; 0              ; 7      ; 0               ; 0             ; 0               ; 0     ; 0              ; 0            ; 0                ; 0                 ;
; h2                                                                                                                                 ; 4     ; 0              ; 0            ; 0              ; 7      ; 0               ; 0             ; 0               ; 0     ; 0              ; 0            ; 0                ; 0                 ;
; h1                                                                                                                                 ; 4     ; 0              ; 0            ; 0              ; 7      ; 0               ; 0             ; 0               ; 0     ; 0              ; 0            ; 0                ; 0                 ;
; h0                                                                                                                                 ; 4     ; 0              ; 0            ; 0              ; 7      ; 0               ; 0             ; 0               ; 0     ; 0              ; 0            ; 0                ; 0                 ;
; u0|rst_controller_001|alt_rst_req_sync_uq1                                                                                         ; 2     ; 1              ; 0            ; 1              ; 1      ; 1               ; 1             ; 1               ; 0     ; 0              ; 0            ; 0                ; 0                 ;
; u0|rst_controller_001|alt_rst_sync_uq1                                                                                             ; 2     ; 0              ; 0            ; 0              ; 1      ; 0               ; 0             ; 0               ; 0     ; 0              ; 0            ; 0                ; 0                 ;
; u0|rst_controller_001                                                                                                              ; 33    ; 32             ; 0            ; 32             ; 2      ; 32              ; 32            ; 32              ; 0     ; 0              ; 0            ; 0                ; 0                 ;
; u0|rst_controller|alt_rst_req_sync_uq1                                                                                             ; 2     ; 1              ; 0            ; 1              ; 1      ; 1               ; 1             ; 1               ; 0     ; 0              ; 0            ; 0                ; 0                 ;
; u0|rst_controller|alt_rst_sync_uq1                                                                                                 ; 2     ; 0              ; 0            ; 0              ; 1      ; 0               ; 0             ; 0               ; 0     ; 0              ; 0            ; 0                ; 0                 ;
; u0|rst_controller                                                                                                                  ; 33    ; 32             ; 0            ; 32             ; 2      ; 32              ; 32            ; 32              ; 0     ; 0              ; 0            ; 0                ; 0                 ;
; u0|mm_interconnect_0|avalon_st_adapter_002|error_adapter_0                                                                         ; 38    ; 1              ; 2            ; 1              ; 37     ; 1               ; 1             ; 1               ; 0     ; 0              ; 0            ; 0                ; 0                 ;
; u0|mm_interconnect_0|avalon_st_adapter_002                                                                                         ; 38    ; 0              ; 0            ; 0              ; 37     ; 0               ; 0             ; 0               ; 0     ; 0              ; 0            ; 0                ; 0                 ;
; u0|mm_interconnect_0|avalon_st_adapter_001|error_adapter_0                                                                         ; 38    ; 1              ; 2            ; 1              ; 37     ; 1               ; 1             ; 1               ; 0     ; 0              ; 0            ; 0                ; 0                 ;
; u0|mm_interconnect_0|avalon_st_adapter_001                                                                                         ; 38    ; 0              ; 0            ; 0              ; 37     ; 0               ; 0             ; 0               ; 0     ; 0              ; 0            ; 0                ; 0                 ;
; u0|mm_interconnect_0|avalon_st_adapter|error_adapter_0                                                                             ; 22    ; 1              ; 2            ; 1              ; 21     ; 1               ; 1             ; 1               ; 0     ; 0              ; 0            ; 0                ; 0                 ;
; u0|mm_interconnect_0|avalon_st_adapter                                                                                             ; 22    ; 0              ; 0            ; 0              ; 21     ; 0               ; 0             ; 0               ; 0     ; 0              ; 0            ; 0                ; 0                 ;
; u0|mm_interconnect_0|ab_avalon_interface_0_s0_cmd_width_adapter|check_and_align_address_to_size                                    ; 34    ; 8              ; 2            ; 8              ; 23     ; 8               ; 8             ; 8               ; 0     ; 0              ; 0            ; 0                ; 0                 ;
; u0|mm_interconnect_0|ab_avalon_interface_0_s0_cmd_width_adapter                                                                    ; 126   ; 3              ; 2            ; 3              ; 103    ; 3               ; 3             ; 3               ; 0     ; 0              ; 0            ; 0                ; 0                 ;
; u0|mm_interconnect_0|ab_avalon_interface_0_s0_rsp_width_adapter|uncompressor                                                       ; 45    ; 4              ; 0            ; 4              ; 32     ; 4               ; 4             ; 4               ; 0     ; 0              ; 0            ; 0                ; 0                 ;
; u0|mm_interconnect_0|ab_avalon_interface_0_s0_rsp_width_adapter                                                                    ; 108   ; 3              ; 0            ; 3              ; 121    ; 3               ; 3             ; 3               ; 0     ; 0              ; 0            ; 0                ; 0                 ;
; u0|mm_interconnect_0|rsp_mux_001|arb|adder                                                                                         ; 12    ; 6              ; 0            ; 6              ; 6      ; 6               ; 6             ; 6               ; 0     ; 0              ; 0            ; 0                ; 0                 ;
; u0|mm_interconnect_0|rsp_mux_001|arb                                                                                               ; 7     ; 0              ; 4            ; 0              ; 3      ; 0               ; 0             ; 0               ; 0     ; 0              ; 0            ; 0                ; 0                 ;
; u0|mm_interconnect_0|rsp_mux_001                                                                                                   ; 363   ; 0              ; 0            ; 0              ; 123    ; 0               ; 0             ; 0               ; 0     ; 0              ; 0            ; 0                ; 0                 ;
; u0|mm_interconnect_0|rsp_mux|arb|adder                                                                                             ; 12    ; 6              ; 0            ; 6              ; 6      ; 6               ; 6             ; 6               ; 0     ; 0              ; 0            ; 0                ; 0                 ;
; u0|mm_interconnect_0|rsp_mux|arb                                                                                                   ; 7     ; 0              ; 4            ; 0              ; 3      ; 0               ; 0             ; 0               ; 0     ; 0              ; 0            ; 0                ; 0                 ;
; u0|mm_interconnect_0|rsp_mux                                                                                                       ; 363   ; 0              ; 0            ; 0              ; 123    ; 0               ; 0             ; 0               ; 0     ; 0              ; 0            ; 0                ; 0                 ;
; u0|mm_interconnect_0|rsp_demux_002                                                                                                 ; 124   ; 4              ; 2            ; 4              ; 241    ; 4               ; 4             ; 4               ; 0     ; 0              ; 0            ; 0                ; 0                 ;
; u0|mm_interconnect_0|rsp_demux_001                                                                                                 ; 124   ; 4              ; 2            ; 4              ; 241    ; 4               ; 4             ; 4               ; 0     ; 0              ; 0            ; 0                ; 0                 ;
; u0|mm_interconnect_0|rsp_demux                                                                                                     ; 124   ; 4              ; 2            ; 4              ; 241    ; 4               ; 4             ; 4               ; 0     ; 0              ; 0            ; 0                ; 0                 ;
; u0|mm_interconnect_0|cmd_mux_002|arb|adder                                                                                         ; 8     ; 2              ; 0            ; 2              ; 4      ; 2               ; 2             ; 2               ; 0     ; 0              ; 0            ; 0                ; 0                 ;
; u0|mm_interconnect_0|cmd_mux_002|arb                                                                                               ; 6     ; 0              ; 1            ; 0              ; 2      ; 0               ; 0             ; 0               ; 0     ; 0              ; 0            ; 0                ; 0                 ;
; u0|mm_interconnect_0|cmd_mux_002                                                                                                   ; 243   ; 0              ; 0            ; 0              ; 122    ; 0               ; 0             ; 0               ; 0     ; 0              ; 0            ; 0                ; 0                 ;
; u0|mm_interconnect_0|cmd_mux_001|arb|adder                                                                                         ; 8     ; 2              ; 0            ; 2              ; 4      ; 2               ; 2             ; 2               ; 0     ; 0              ; 0            ; 0                ; 0                 ;
; u0|mm_interconnect_0|cmd_mux_001|arb                                                                                               ; 6     ; 0              ; 1            ; 0              ; 2      ; 0               ; 0             ; 0               ; 0     ; 0              ; 0            ; 0                ; 0                 ;
; u0|mm_interconnect_0|cmd_mux_001                                                                                                   ; 243   ; 0              ; 0            ; 0              ; 122    ; 0               ; 0             ; 0               ; 0     ; 0              ; 0            ; 0                ; 0                 ;
; u0|mm_interconnect_0|cmd_mux|arb|adder                                                                                             ; 8     ; 2              ; 0            ; 2              ; 4      ; 2               ; 2             ; 2               ; 0     ; 0              ; 0            ; 0                ; 0                 ;
; u0|mm_interconnect_0|cmd_mux|arb                                                                                                   ; 6     ; 0              ; 1            ; 0              ; 2      ; 0               ; 0             ; 0               ; 0     ; 0              ; 0            ; 0                ; 0                 ;
; u0|mm_interconnect_0|cmd_mux                                                                                                       ; 243   ; 0              ; 0            ; 0              ; 122    ; 0               ; 0             ; 0               ; 0     ; 0              ; 0            ; 0                ; 0                 ;
; u0|mm_interconnect_0|cmd_demux_001                                                                                                 ; 127   ; 9              ; 2            ; 9              ; 361    ; 9               ; 9             ; 9               ; 0     ; 0              ; 0            ; 0                ; 0                 ;
; u0|mm_interconnect_0|cmd_demux                                                                                                     ; 127   ; 9              ; 2            ; 9              ; 361    ; 9               ; 9             ; 9               ; 0     ; 0              ; 0            ; 0                ; 0                 ;
; u0|mm_interconnect_0|switches_s1_burst_adapter|altera_merlin_burst_adapter_13_1.burst_adapter|the_min|dc_sub|subtract              ; 17    ; 1              ; 0            ; 1              ; 8      ; 1               ; 1             ; 1               ; 0     ; 0              ; 0            ; 0                ; 0                 ;
; u0|mm_interconnect_0|switches_s1_burst_adapter|altera_merlin_burst_adapter_13_1.burst_adapter|the_min|dc_sub                       ; 16    ; 2              ; 0            ; 2              ; 8      ; 2               ; 2             ; 2               ; 0     ; 0              ; 0            ; 0                ; 0                 ;
; u0|mm_interconnect_0|switches_s1_burst_adapter|altera_merlin_burst_adapter_13_1.burst_adapter|the_min|db_sub|subtract              ; 17    ; 1              ; 0            ; 1              ; 8      ; 1               ; 1             ; 1               ; 0     ; 0              ; 0            ; 0                ; 0                 ;
; u0|mm_interconnect_0|switches_s1_burst_adapter|altera_merlin_burst_adapter_13_1.burst_adapter|the_min|db_sub                       ; 16    ; 2              ; 0            ; 2              ; 8      ; 2               ; 2             ; 2               ; 0     ; 0              ; 0            ; 0                ; 0                 ;
; u0|mm_interconnect_0|switches_s1_burst_adapter|altera_merlin_burst_adapter_13_1.burst_adapter|the_min|da_sub|subtract              ; 17    ; 1              ; 0            ; 1              ; 8      ; 1               ; 1             ; 1               ; 0     ; 0              ; 0            ; 0                ; 0                 ;
; u0|mm_interconnect_0|switches_s1_burst_adapter|altera_merlin_burst_adapter_13_1.burst_adapter|the_min|da_sub                       ; 16    ; 2              ; 0            ; 2              ; 8      ; 2               ; 2             ; 2               ; 0     ; 0              ; 0            ; 0                ; 0                 ;
; u0|mm_interconnect_0|switches_s1_burst_adapter|altera_merlin_burst_adapter_13_1.burst_adapter|the_min|bc_sub|subtract              ; 17    ; 1              ; 0            ; 1              ; 8      ; 1               ; 1             ; 1               ; 0     ; 0              ; 0            ; 0                ; 0                 ;
; u0|mm_interconnect_0|switches_s1_burst_adapter|altera_merlin_burst_adapter_13_1.burst_adapter|the_min|bc_sub                       ; 16    ; 2              ; 0            ; 2              ; 8      ; 2               ; 2             ; 2               ; 0     ; 0              ; 0            ; 0                ; 0                 ;
; u0|mm_interconnect_0|switches_s1_burst_adapter|altera_merlin_burst_adapter_13_1.burst_adapter|the_min|ac_sub|subtract              ; 17    ; 1              ; 0            ; 1              ; 8      ; 1               ; 1             ; 1               ; 0     ; 0              ; 0            ; 0                ; 0                 ;
; u0|mm_interconnect_0|switches_s1_burst_adapter|altera_merlin_burst_adapter_13_1.burst_adapter|the_min|ac_sub                       ; 16    ; 2              ; 0            ; 2              ; 8      ; 2               ; 2             ; 2               ; 0     ; 0              ; 0            ; 0                ; 0                 ;
; u0|mm_interconnect_0|switches_s1_burst_adapter|altera_merlin_burst_adapter_13_1.burst_adapter|the_min|ab_sub|subtract              ; 17    ; 1              ; 0            ; 1              ; 8      ; 1               ; 1             ; 1               ; 0     ; 0              ; 0            ; 0                ; 0                 ;
; u0|mm_interconnect_0|switches_s1_burst_adapter|altera_merlin_burst_adapter_13_1.burst_adapter|the_min|ab_sub                       ; 16    ; 2              ; 0            ; 2              ; 8      ; 2               ; 2             ; 2               ; 0     ; 0              ; 0            ; 0                ; 0                 ;
; u0|mm_interconnect_0|switches_s1_burst_adapter|altera_merlin_burst_adapter_13_1.burst_adapter|the_min                              ; 31    ; 0              ; 2            ; 0              ; 7      ; 0               ; 0             ; 0               ; 0     ; 0              ; 0            ; 0                ; 0                 ;
; u0|mm_interconnect_0|switches_s1_burst_adapter|altera_merlin_burst_adapter_13_1.burst_adapter|the_burstwrap_increment              ; 7     ; 0              ; 0            ; 0              ; 7      ; 0               ; 0             ; 0               ; 0     ; 0              ; 0            ; 0                ; 0                 ;
; u0|mm_interconnect_0|switches_s1_burst_adapter|altera_merlin_burst_adapter_13_1.burst_adapter|align_address_to_size                ; 29    ; 5              ; 0            ; 5              ; 23     ; 5               ; 5             ; 5               ; 0     ; 0              ; 0            ; 0                ; 0                 ;
; u0|mm_interconnect_0|switches_s1_burst_adapter|altera_merlin_burst_adapter_13_1.burst_adapter                                      ; 123   ; 0              ; 0            ; 0              ; 121    ; 0               ; 0             ; 0               ; 0     ; 0              ; 0            ; 0                ; 0                 ;
; u0|mm_interconnect_0|switches_s1_burst_adapter                                                                                     ; 123   ; 0              ; 0            ; 0              ; 121    ; 0               ; 0             ; 0               ; 0     ; 0              ; 0            ; 0                ; 0                 ;
; u0|mm_interconnect_0|led_control_s1_burst_adapter|altera_merlin_burst_adapter_13_1.burst_adapter|the_min|dc_sub|subtract           ; 17    ; 1              ; 0            ; 1              ; 8      ; 1               ; 1             ; 1               ; 0     ; 0              ; 0            ; 0                ; 0                 ;
; u0|mm_interconnect_0|led_control_s1_burst_adapter|altera_merlin_burst_adapter_13_1.burst_adapter|the_min|dc_sub                    ; 16    ; 2              ; 0            ; 2              ; 8      ; 2               ; 2             ; 2               ; 0     ; 0              ; 0            ; 0                ; 0                 ;
; u0|mm_interconnect_0|led_control_s1_burst_adapter|altera_merlin_burst_adapter_13_1.burst_adapter|the_min|db_sub|subtract           ; 17    ; 1              ; 0            ; 1              ; 8      ; 1               ; 1             ; 1               ; 0     ; 0              ; 0            ; 0                ; 0                 ;
; u0|mm_interconnect_0|led_control_s1_burst_adapter|altera_merlin_burst_adapter_13_1.burst_adapter|the_min|db_sub                    ; 16    ; 2              ; 0            ; 2              ; 8      ; 2               ; 2             ; 2               ; 0     ; 0              ; 0            ; 0                ; 0                 ;
; u0|mm_interconnect_0|led_control_s1_burst_adapter|altera_merlin_burst_adapter_13_1.burst_adapter|the_min|da_sub|subtract           ; 17    ; 1              ; 0            ; 1              ; 8      ; 1               ; 1             ; 1               ; 0     ; 0              ; 0            ; 0                ; 0                 ;
; u0|mm_interconnect_0|led_control_s1_burst_adapter|altera_merlin_burst_adapter_13_1.burst_adapter|the_min|da_sub                    ; 16    ; 2              ; 0            ; 2              ; 8      ; 2               ; 2             ; 2               ; 0     ; 0              ; 0            ; 0                ; 0                 ;
; u0|mm_interconnect_0|led_control_s1_burst_adapter|altera_merlin_burst_adapter_13_1.burst_adapter|the_min|bc_sub|subtract           ; 17    ; 1              ; 0            ; 1              ; 8      ; 1               ; 1             ; 1               ; 0     ; 0              ; 0            ; 0                ; 0                 ;
; u0|mm_interconnect_0|led_control_s1_burst_adapter|altera_merlin_burst_adapter_13_1.burst_adapter|the_min|bc_sub                    ; 16    ; 2              ; 0            ; 2              ; 8      ; 2               ; 2             ; 2               ; 0     ; 0              ; 0            ; 0                ; 0                 ;
; u0|mm_interconnect_0|led_control_s1_burst_adapter|altera_merlin_burst_adapter_13_1.burst_adapter|the_min|ac_sub|subtract           ; 17    ; 1              ; 0            ; 1              ; 8      ; 1               ; 1             ; 1               ; 0     ; 0              ; 0            ; 0                ; 0                 ;
; u0|mm_interconnect_0|led_control_s1_burst_adapter|altera_merlin_burst_adapter_13_1.burst_adapter|the_min|ac_sub                    ; 16    ; 2              ; 0            ; 2              ; 8      ; 2               ; 2             ; 2               ; 0     ; 0              ; 0            ; 0                ; 0                 ;
; u0|mm_interconnect_0|led_control_s1_burst_adapter|altera_merlin_burst_adapter_13_1.burst_adapter|the_min|ab_sub|subtract           ; 17    ; 1              ; 0            ; 1              ; 8      ; 1               ; 1             ; 1               ; 0     ; 0              ; 0            ; 0                ; 0                 ;
; u0|mm_interconnect_0|led_control_s1_burst_adapter|altera_merlin_burst_adapter_13_1.burst_adapter|the_min|ab_sub                    ; 16    ; 2              ; 0            ; 2              ; 8      ; 2               ; 2             ; 2               ; 0     ; 0              ; 0            ; 0                ; 0                 ;
; u0|mm_interconnect_0|led_control_s1_burst_adapter|altera_merlin_burst_adapter_13_1.burst_adapter|the_min                           ; 31    ; 0              ; 2            ; 0              ; 7      ; 0               ; 0             ; 0               ; 0     ; 0              ; 0            ; 0                ; 0                 ;
; u0|mm_interconnect_0|led_control_s1_burst_adapter|altera_merlin_burst_adapter_13_1.burst_adapter|the_burstwrap_increment           ; 7     ; 0              ; 0            ; 0              ; 7      ; 0               ; 0             ; 0               ; 0     ; 0              ; 0            ; 0                ; 0                 ;
; u0|mm_interconnect_0|led_control_s1_burst_adapter|altera_merlin_burst_adapter_13_1.burst_adapter|align_address_to_size             ; 29    ; 5              ; 0            ; 5              ; 23     ; 5               ; 5             ; 5               ; 0     ; 0              ; 0            ; 0                ; 0                 ;
; u0|mm_interconnect_0|led_control_s1_burst_adapter|altera_merlin_burst_adapter_13_1.burst_adapter                                   ; 123   ; 0              ; 0            ; 0              ; 121    ; 0               ; 0             ; 0               ; 0     ; 0              ; 0            ; 0                ; 0                 ;
; u0|mm_interconnect_0|led_control_s1_burst_adapter                                                                                  ; 123   ; 0              ; 0            ; 0              ; 121    ; 0               ; 0             ; 0               ; 0     ; 0              ; 0            ; 0                ; 0                 ;
; u0|mm_interconnect_0|ab_avalon_interface_0_s0_burst_adapter|altera_merlin_burst_adapter_13_1.burst_adapter|the_min|dc_sub|subtract ; 17    ; 1              ; 0            ; 1              ; 8      ; 1               ; 1             ; 1               ; 0     ; 0              ; 0            ; 0                ; 0                 ;
; u0|mm_interconnect_0|ab_avalon_interface_0_s0_burst_adapter|altera_merlin_burst_adapter_13_1.burst_adapter|the_min|dc_sub          ; 16    ; 2              ; 0            ; 2              ; 8      ; 2               ; 2             ; 2               ; 0     ; 0              ; 0            ; 0                ; 0                 ;
; u0|mm_interconnect_0|ab_avalon_interface_0_s0_burst_adapter|altera_merlin_burst_adapter_13_1.burst_adapter|the_min|db_sub|subtract ; 17    ; 1              ; 0            ; 1              ; 8      ; 1               ; 1             ; 1               ; 0     ; 0              ; 0            ; 0                ; 0                 ;
; u0|mm_interconnect_0|ab_avalon_interface_0_s0_burst_adapter|altera_merlin_burst_adapter_13_1.burst_adapter|the_min|db_sub          ; 16    ; 2              ; 0            ; 2              ; 8      ; 2               ; 2             ; 2               ; 0     ; 0              ; 0            ; 0                ; 0                 ;
; u0|mm_interconnect_0|ab_avalon_interface_0_s0_burst_adapter|altera_merlin_burst_adapter_13_1.burst_adapter|the_min|da_sub|subtract ; 17    ; 1              ; 0            ; 1              ; 8      ; 1               ; 1             ; 1               ; 0     ; 0              ; 0            ; 0                ; 0                 ;
; u0|mm_interconnect_0|ab_avalon_interface_0_s0_burst_adapter|altera_merlin_burst_adapter_13_1.burst_adapter|the_min|da_sub          ; 16    ; 2              ; 0            ; 2              ; 8      ; 2               ; 2             ; 2               ; 0     ; 0              ; 0            ; 0                ; 0                 ;
; u0|mm_interconnect_0|ab_avalon_interface_0_s0_burst_adapter|altera_merlin_burst_adapter_13_1.burst_adapter|the_min|bc_sub|subtract ; 17    ; 1              ; 0            ; 1              ; 8      ; 1               ; 1             ; 1               ; 0     ; 0              ; 0            ; 0                ; 0                 ;
; u0|mm_interconnect_0|ab_avalon_interface_0_s0_burst_adapter|altera_merlin_burst_adapter_13_1.burst_adapter|the_min|bc_sub          ; 16    ; 2              ; 0            ; 2              ; 8      ; 2               ; 2             ; 2               ; 0     ; 0              ; 0            ; 0                ; 0                 ;
; u0|mm_interconnect_0|ab_avalon_interface_0_s0_burst_adapter|altera_merlin_burst_adapter_13_1.burst_adapter|the_min|ac_sub|subtract ; 17    ; 1              ; 0            ; 1              ; 8      ; 1               ; 1             ; 1               ; 0     ; 0              ; 0            ; 0                ; 0                 ;
; u0|mm_interconnect_0|ab_avalon_interface_0_s0_burst_adapter|altera_merlin_burst_adapter_13_1.burst_adapter|the_min|ac_sub          ; 16    ; 2              ; 0            ; 2              ; 8      ; 2               ; 2             ; 2               ; 0     ; 0              ; 0            ; 0                ; 0                 ;
; u0|mm_interconnect_0|ab_avalon_interface_0_s0_burst_adapter|altera_merlin_burst_adapter_13_1.burst_adapter|the_min|ab_sub|subtract ; 17    ; 1              ; 0            ; 1              ; 8      ; 1               ; 1             ; 1               ; 0     ; 0              ; 0            ; 0                ; 0                 ;
; u0|mm_interconnect_0|ab_avalon_interface_0_s0_burst_adapter|altera_merlin_burst_adapter_13_1.burst_adapter|the_min|ab_sub          ; 16    ; 2              ; 0            ; 2              ; 8      ; 2               ; 2             ; 2               ; 0     ; 0              ; 0            ; 0                ; 0                 ;
; u0|mm_interconnect_0|ab_avalon_interface_0_s0_burst_adapter|altera_merlin_burst_adapter_13_1.burst_adapter|the_min                 ; 31    ; 0              ; 2            ; 0              ; 7      ; 0               ; 0             ; 0               ; 0     ; 0              ; 0            ; 0                ; 0                 ;
; u0|mm_interconnect_0|ab_avalon_interface_0_s0_burst_adapter|altera_merlin_burst_adapter_13_1.burst_adapter|the_burstwrap_increment ; 7     ; 0              ; 0            ; 0              ; 7      ; 0               ; 0             ; 0               ; 0     ; 0              ; 0            ; 0                ; 0                 ;
; u0|mm_interconnect_0|ab_avalon_interface_0_s0_burst_adapter|altera_merlin_burst_adapter_13_1.burst_adapter|align_address_to_size   ; 29    ; 5              ; 0            ; 5              ; 22     ; 5               ; 5             ; 5               ; 0     ; 0              ; 0            ; 0                ; 0                 ;
; u0|mm_interconnect_0|ab_avalon_interface_0_s0_burst_adapter|altera_merlin_burst_adapter_13_1.burst_adapter                         ; 105   ; 0              ; 0            ; 0              ; 103    ; 0               ; 0             ; 0               ; 0     ; 0              ; 0            ; 0                ; 0                 ;
; u0|mm_interconnect_0|ab_avalon_interface_0_s0_burst_adapter                                                                        ; 105   ; 0              ; 0            ; 0              ; 103    ; 0               ; 0             ; 0               ; 0     ; 0              ; 0            ; 0                ; 0                 ;
; u0|mm_interconnect_0|hps_0_h2f_lw_axi_master_rd_limiter                                                                            ; 244   ; 0              ; 0            ; 0              ; 244    ; 0               ; 0             ; 0               ; 0     ; 0              ; 0            ; 0                ; 0                 ;
; u0|mm_interconnect_0|hps_0_h2f_lw_axi_master_wr_limiter                                                                            ; 244   ; 0              ; 0            ; 0              ; 244    ; 0               ; 0             ; 0               ; 0     ; 0              ; 0            ; 0                ; 0                 ;
; u0|mm_interconnect_0|router_004|the_default_decode                                                                                 ; 0     ; 6              ; 0            ; 6              ; 6      ; 6               ; 6             ; 6               ; 0     ; 0              ; 0            ; 0                ; 0                 ;
; u0|mm_interconnect_0|router_004                                                                                                    ; 120   ; 0              ; 2            ; 0              ; 121    ; 0               ; 0             ; 0               ; 0     ; 0              ; 0            ; 0                ; 0                 ;
; u0|mm_interconnect_0|router_003|the_default_decode                                                                                 ; 0     ; 6              ; 0            ; 6              ; 6      ; 6               ; 6             ; 6               ; 0     ; 0              ; 0            ; 0                ; 0                 ;
; u0|mm_interconnect_0|router_003                                                                                                    ; 120   ; 0              ; 2            ; 0              ; 121    ; 0               ; 0             ; 0               ; 0     ; 0              ; 0            ; 0                ; 0                 ;
; u0|mm_interconnect_0|router_002|the_default_decode                                                                                 ; 0     ; 6              ; 0            ; 6              ; 6      ; 6               ; 6             ; 6               ; 0     ; 0              ; 0            ; 0                ; 0                 ;
; u0|mm_interconnect_0|router_002                                                                                                    ; 102   ; 0              ; 2            ; 0              ; 103    ; 0               ; 0             ; 0               ; 0     ; 0              ; 0            ; 0                ; 0                 ;
; u0|mm_interconnect_0|router_001|the_default_decode                                                                                 ; 0     ; 5              ; 0            ; 5              ; 5      ; 5               ; 5             ; 5               ; 0     ; 0              ; 0            ; 0                ; 0                 ;
; u0|mm_interconnect_0|router_001                                                                                                    ; 120   ; 0              ; 4            ; 0              ; 121    ; 0               ; 0             ; 0               ; 0     ; 0              ; 0            ; 0                ; 0                 ;
; u0|mm_interconnect_0|router|the_default_decode                                                                                     ; 0     ; 5              ; 0            ; 5              ; 5      ; 5               ; 5             ; 5               ; 0     ; 0              ; 0            ; 0                ; 0                 ;
; u0|mm_interconnect_0|router                                                                                                        ; 120   ; 0              ; 4            ; 0              ; 121    ; 0               ; 0             ; 0               ; 0     ; 0              ; 0            ; 0                ; 0                 ;
; u0|mm_interconnect_0|switches_s1_agent_rdata_fifo                                                                                  ; 79    ; 41             ; 0            ; 41             ; 36     ; 41              ; 41            ; 41              ; 0     ; 0              ; 0            ; 0                ; 0                 ;
; u0|mm_interconnect_0|switches_s1_agent_rsp_fifo                                                                                    ; 160   ; 39             ; 0            ; 39             ; 119    ; 39              ; 39            ; 39              ; 0     ; 0              ; 0            ; 0                ; 0                 ;
; u0|mm_interconnect_0|switches_s1_agent|uncompressor                                                                                ; 45    ; 1              ; 0            ; 1              ; 43     ; 1               ; 1             ; 1               ; 0     ; 0              ; 0            ; 0                ; 0                 ;
; u0|mm_interconnect_0|switches_s1_agent                                                                                             ; 316   ; 39             ; 40           ; 39             ; 337    ; 39              ; 39            ; 39              ; 0     ; 0              ; 0            ; 0                ; 0                 ;
; u0|mm_interconnect_0|led_control_s1_agent_rdata_fifo                                                                               ; 79    ; 41             ; 0            ; 41             ; 36     ; 41              ; 41            ; 41              ; 0     ; 0              ; 0            ; 0                ; 0                 ;
; u0|mm_interconnect_0|led_control_s1_agent_rsp_fifo                                                                                 ; 160   ; 39             ; 0            ; 39             ; 119    ; 39              ; 39            ; 39              ; 0     ; 0              ; 0            ; 0                ; 0                 ;
; u0|mm_interconnect_0|led_control_s1_agent|uncompressor                                                                             ; 45    ; 1              ; 0            ; 1              ; 43     ; 1               ; 1             ; 1               ; 0     ; 0              ; 0            ; 0                ; 0                 ;
; u0|mm_interconnect_0|led_control_s1_agent                                                                                          ; 316   ; 39             ; 40           ; 39             ; 337    ; 39              ; 39            ; 39              ; 0     ; 0              ; 0            ; 0                ; 0                 ;
; u0|mm_interconnect_0|ab_avalon_interface_0_s0_agent_rdata_fifo                                                                     ; 63    ; 41             ; 0            ; 41             ; 20     ; 41              ; 41            ; 41              ; 0     ; 0              ; 0            ; 0                ; 0                 ;
; u0|mm_interconnect_0|ab_avalon_interface_0_s0_agent_rsp_fifo                                                                       ; 142   ; 39             ; 0            ; 39             ; 101    ; 39              ; 39            ; 39              ; 0     ; 0              ; 0            ; 0                ; 0                 ;
; u0|mm_interconnect_0|ab_avalon_interface_0_s0_agent|uncompressor                                                                   ; 45    ; 1              ; 0            ; 1              ; 43     ; 1               ; 1             ; 1               ; 0     ; 0              ; 0            ; 0                ; 0                 ;
; u0|mm_interconnect_0|ab_avalon_interface_0_s0_agent                                                                                ; 248   ; 22             ; 24           ; 22             ; 266    ; 22              ; 22            ; 22              ; 0     ; 0              ; 0            ; 0                ; 0                 ;
; u0|mm_interconnect_0|hps_0_h2f_lw_axi_master_agent|align_address_to_size                                                           ; 38    ; 0              ; 1            ; 0              ; 23     ; 0               ; 0             ; 0               ; 0     ; 0              ; 0            ; 0                ; 0                 ;
; u0|mm_interconnect_0|hps_0_h2f_lw_axi_master_agent                                                                                 ; 419   ; 87             ; 189          ; 87             ; 302    ; 87              ; 87            ; 87              ; 0     ; 0              ; 0            ; 0                ; 0                 ;
; u0|mm_interconnect_0|switches_s1_translator                                                                                        ; 104   ; 6              ; 22           ; 6              ; 36     ; 6               ; 6             ; 6               ; 0     ; 0              ; 0            ; 0                ; 0                 ;
; u0|mm_interconnect_0|led_control_s1_translator                                                                                     ; 104   ; 6              ; 22           ; 6              ; 70     ; 6               ; 6             ; 6               ; 0     ; 0              ; 0            ; 0                ; 0                 ;
; u0|mm_interconnect_0|ab_avalon_interface_0_s0_translator                                                                           ; 69    ; 6              ; 20           ; 6              ; 37     ; 6               ; 6             ; 6               ; 0     ; 0              ; 0            ; 0                ; 0                 ;
; u0|mm_interconnect_0                                                                                                               ; 239   ; 0              ; 0            ; 0              ; 123    ; 0               ; 0             ; 0               ; 0     ; 0              ; 0            ; 0                ; 0                 ;
; u0|switches                                                                                                                        ; 14    ; 0              ; 0            ; 0              ; 32     ; 0               ; 0             ; 0               ; 0     ; 0              ; 0            ; 0                ; 0                 ;
; u0|led_control                                                                                                                     ; 38    ; 22             ; 22           ; 22             ; 42     ; 22              ; 22            ; 22              ; 0     ; 0              ; 0            ; 0                ; 0                 ;
; u0|hps_0|hps_io|border|hps_sdram_inst|dll                                                                                          ; 2     ; 0              ; 0            ; 0              ; 7      ; 0               ; 0             ; 0               ; 0     ; 0              ; 0            ; 0                ; 0                 ;
; u0|hps_0|hps_io|border|hps_sdram_inst|oct                                                                                          ; 1     ; 0              ; 0            ; 0              ; 32     ; 0               ; 0             ; 0               ; 0     ; 0              ; 0            ; 0                ; 0                 ;
; u0|hps_0|hps_io|border|hps_sdram_inst|c0                                                                                           ; 228   ; 173            ; 8            ; 173            ; 280    ; 173             ; 173           ; 173             ; 0     ; 0              ; 0            ; 0                ; 0                 ;
; u0|hps_0|hps_io|border|hps_sdram_inst|seq                                                                                          ; 0     ; 0              ; 0            ; 0              ; 0      ; 0               ; 0             ; 0               ; 0     ; 0              ; 0            ; 0                ; 0                 ;
; u0|hps_0|hps_io|border|hps_sdram_inst|p0|umemphy|uio_pads|dq_ddio[3].ubidir_dq_dqs|altdq_dqs2_inst                                 ; 135   ; 1              ; 3            ; 1              ; 36     ; 1               ; 1             ; 1               ; 10    ; 0              ; 0            ; 0                ; 0                 ;
; u0|hps_0|hps_io|border|hps_sdram_inst|p0|umemphy|uio_pads|dq_ddio[3].ubidir_dq_dqs                                                 ; 135   ; 0              ; 0            ; 0              ; 36     ; 0               ; 0             ; 0               ; 10    ; 0              ; 0            ; 0                ; 0                 ;
; u0|hps_0|hps_io|border|hps_sdram_inst|p0|umemphy|uio_pads|dq_ddio[2].ubidir_dq_dqs|altdq_dqs2_inst                                 ; 135   ; 1              ; 3            ; 1              ; 36     ; 1               ; 1             ; 1               ; 10    ; 0              ; 0            ; 0                ; 0                 ;
; u0|hps_0|hps_io|border|hps_sdram_inst|p0|umemphy|uio_pads|dq_ddio[2].ubidir_dq_dqs                                                 ; 135   ; 0              ; 0            ; 0              ; 36     ; 0               ; 0             ; 0               ; 10    ; 0              ; 0            ; 0                ; 0                 ;
; u0|hps_0|hps_io|border|hps_sdram_inst|p0|umemphy|uio_pads|dq_ddio[1].ubidir_dq_dqs|altdq_dqs2_inst                                 ; 135   ; 1              ; 3            ; 1              ; 36     ; 1               ; 1             ; 1               ; 10    ; 0              ; 0            ; 0                ; 0                 ;
; u0|hps_0|hps_io|border|hps_sdram_inst|p0|umemphy|uio_pads|dq_ddio[1].ubidir_dq_dqs                                                 ; 135   ; 0              ; 0            ; 0              ; 36     ; 0               ; 0             ; 0               ; 10    ; 0              ; 0            ; 0                ; 0                 ;
; u0|hps_0|hps_io|border|hps_sdram_inst|p0|umemphy|uio_pads|dq_ddio[0].ubidir_dq_dqs|altdq_dqs2_inst                                 ; 135   ; 1              ; 3            ; 1              ; 36     ; 1               ; 1             ; 1               ; 10    ; 0              ; 0            ; 0                ; 0                 ;
; u0|hps_0|hps_io|border|hps_sdram_inst|p0|umemphy|uio_pads|dq_ddio[0].ubidir_dq_dqs                                                 ; 135   ; 0              ; 0            ; 0              ; 36     ; 0               ; 0             ; 0               ; 10    ; 0              ; 0            ; 0                ; 0                 ;
; u0|hps_0|hps_io|border|hps_sdram_inst|p0|umemphy|uio_pads|uaddr_cmd_pads|clock_gen[0].uclk_generator                               ; 1     ; 0              ; 0            ; 0              ; 2      ; 0               ; 0             ; 0               ; 0     ; 0              ; 0            ; 0                ; 0                 ;
; u0|hps_0|hps_io|border|hps_sdram_inst|p0|umemphy|uio_pads|uaddr_cmd_pads|clock_gen[0].umem_ck_pad|auto_generated                   ; 3     ; 0              ; 0            ; 0              ; 1      ; 0               ; 0             ; 0               ; 0     ; 0              ; 0            ; 0                ; 0                 ;
; u0|hps_0|hps_io|border|hps_sdram_inst|p0|umemphy|uio_pads|uaddr_cmd_pads|ureset_n_pad                                              ; 7     ; 1              ; 0            ; 1              ; 1      ; 1               ; 1             ; 1               ; 0     ; 0              ; 0            ; 0                ; 0                 ;
; u0|hps_0|hps_io|border|hps_sdram_inst|p0|umemphy|uio_pads|uaddr_cmd_pads|ucmd_pad                                                  ; 37    ; 1              ; 0            ; 1              ; 6      ; 1               ; 1             ; 1               ; 0     ; 0              ; 0            ; 0                ; 0                 ;
; u0|hps_0|hps_io|border|hps_sdram_inst|p0|umemphy|uio_pads|uaddr_cmd_pads|ubank_pad                                                 ; 19    ; 1              ; 0            ; 1              ; 3      ; 1               ; 1             ; 1               ; 0     ; 0              ; 0            ; 0                ; 0                 ;
; u0|hps_0|hps_io|border|hps_sdram_inst|p0|umemphy|uio_pads|uaddr_cmd_pads|uaddress_pad                                              ; 91    ; 1              ; 0            ; 1              ; 15     ; 1               ; 1             ; 1               ; 0     ; 0              ; 0            ; 0                ; 0                 ;
; u0|hps_0|hps_io|border|hps_sdram_inst|p0|umemphy|uio_pads|uaddr_cmd_pads|address_gen[24].acv_ac_ldc                                ; 10    ; 0              ; 1            ; 0              ; 1      ; 0               ; 0             ; 0               ; 0     ; 0              ; 0            ; 0                ; 0                 ;
; u0|hps_0|hps_io|border|hps_sdram_inst|p0|umemphy|uio_pads|uaddr_cmd_pads|address_gen[23].acv_ac_ldc                                ; 10    ; 0              ; 1            ; 0              ; 1      ; 0               ; 0             ; 0               ; 0     ; 0              ; 0            ; 0                ; 0                 ;
; u0|hps_0|hps_io|border|hps_sdram_inst|p0|umemphy|uio_pads|uaddr_cmd_pads|address_gen[22].acv_ac_ldc                                ; 10    ; 0              ; 1            ; 0              ; 1      ; 0               ; 0             ; 0               ; 0     ; 0              ; 0            ; 0                ; 0                 ;
; u0|hps_0|hps_io|border|hps_sdram_inst|p0|umemphy|uio_pads|uaddr_cmd_pads|address_gen[21].acv_ac_ldc                                ; 10    ; 0              ; 1            ; 0              ; 1      ; 0               ; 0             ; 0               ; 0     ; 0              ; 0            ; 0                ; 0                 ;
; u0|hps_0|hps_io|border|hps_sdram_inst|p0|umemphy|uio_pads|uaddr_cmd_pads|address_gen[20].acv_ac_ldc                                ; 10    ; 0              ; 1            ; 0              ; 1      ; 0               ; 0             ; 0               ; 0     ; 0              ; 0            ; 0                ; 0                 ;
; u0|hps_0|hps_io|border|hps_sdram_inst|p0|umemphy|uio_pads|uaddr_cmd_pads|address_gen[19].acv_ac_ldc                                ; 10    ; 0              ; 1            ; 0              ; 1      ; 0               ; 0             ; 0               ; 0     ; 0              ; 0            ; 0                ; 0                 ;
; u0|hps_0|hps_io|border|hps_sdram_inst|p0|umemphy|uio_pads|uaddr_cmd_pads|address_gen[18].acv_ac_ldc                                ; 10    ; 0              ; 1            ; 0              ; 1      ; 0               ; 0             ; 0               ; 0     ; 0              ; 0            ; 0                ; 0                 ;
; u0|hps_0|hps_io|border|hps_sdram_inst|p0|umemphy|uio_pads|uaddr_cmd_pads|address_gen[17].acv_ac_ldc                                ; 10    ; 0              ; 1            ; 0              ; 1      ; 0               ; 0             ; 0               ; 0     ; 0              ; 0            ; 0                ; 0                 ;
; u0|hps_0|hps_io|border|hps_sdram_inst|p0|umemphy|uio_pads|uaddr_cmd_pads|address_gen[16].acv_ac_ldc                                ; 10    ; 0              ; 1            ; 0              ; 1      ; 0               ; 0             ; 0               ; 0     ; 0              ; 0            ; 0                ; 0                 ;
; u0|hps_0|hps_io|border|hps_sdram_inst|p0|umemphy|uio_pads|uaddr_cmd_pads|address_gen[15].acv_ac_ldc                                ; 10    ; 0              ; 1            ; 0              ; 1      ; 0               ; 0             ; 0               ; 0     ; 0              ; 0            ; 0                ; 0                 ;
; u0|hps_0|hps_io|border|hps_sdram_inst|p0|umemphy|uio_pads|uaddr_cmd_pads|address_gen[14].acv_ac_ldc                                ; 10    ; 0              ; 1            ; 0              ; 1      ; 0               ; 0             ; 0               ; 0     ; 0              ; 0            ; 0                ; 0                 ;
; u0|hps_0|hps_io|border|hps_sdram_inst|p0|umemphy|uio_pads|uaddr_cmd_pads|address_gen[13].acv_ac_ldc                                ; 10    ; 0              ; 1            ; 0              ; 1      ; 0               ; 0             ; 0               ; 0     ; 0              ; 0            ; 0                ; 0                 ;
; u0|hps_0|hps_io|border|hps_sdram_inst|p0|umemphy|uio_pads|uaddr_cmd_pads|address_gen[12].acv_ac_ldc                                ; 10    ; 0              ; 1            ; 0              ; 1      ; 0               ; 0             ; 0               ; 0     ; 0              ; 0            ; 0                ; 0                 ;
; u0|hps_0|hps_io|border|hps_sdram_inst|p0|umemphy|uio_pads|uaddr_cmd_pads|address_gen[11].acv_ac_ldc                                ; 10    ; 0              ; 1            ; 0              ; 1      ; 0               ; 0             ; 0               ; 0     ; 0              ; 0            ; 0                ; 0                 ;
; u0|hps_0|hps_io|border|hps_sdram_inst|p0|umemphy|uio_pads|uaddr_cmd_pads|address_gen[10].acv_ac_ldc                                ; 10    ; 0              ; 1            ; 0              ; 1      ; 0               ; 0             ; 0               ; 0     ; 0              ; 0            ; 0                ; 0                 ;
; u0|hps_0|hps_io|border|hps_sdram_inst|p0|umemphy|uio_pads|uaddr_cmd_pads|address_gen[9].acv_ac_ldc                                 ; 10    ; 0              ; 1            ; 0              ; 1      ; 0               ; 0             ; 0               ; 0     ; 0              ; 0            ; 0                ; 0                 ;
; u0|hps_0|hps_io|border|hps_sdram_inst|p0|umemphy|uio_pads|uaddr_cmd_pads|address_gen[8].acv_ac_ldc                                 ; 10    ; 0              ; 1            ; 0              ; 1      ; 0               ; 0             ; 0               ; 0     ; 0              ; 0            ; 0                ; 0                 ;
; u0|hps_0|hps_io|border|hps_sdram_inst|p0|umemphy|uio_pads|uaddr_cmd_pads|address_gen[7].acv_ac_ldc                                 ; 10    ; 0              ; 1            ; 0              ; 1      ; 0               ; 0             ; 0               ; 0     ; 0              ; 0            ; 0                ; 0                 ;
; u0|hps_0|hps_io|border|hps_sdram_inst|p0|umemphy|uio_pads|uaddr_cmd_pads|address_gen[6].acv_ac_ldc                                 ; 10    ; 0              ; 1            ; 0              ; 1      ; 0               ; 0             ; 0               ; 0     ; 0              ; 0            ; 0                ; 0                 ;
; u0|hps_0|hps_io|border|hps_sdram_inst|p0|umemphy|uio_pads|uaddr_cmd_pads|address_gen[5].acv_ac_ldc                                 ; 10    ; 0              ; 1            ; 0              ; 1      ; 0               ; 0             ; 0               ; 0     ; 0              ; 0            ; 0                ; 0                 ;
; u0|hps_0|hps_io|border|hps_sdram_inst|p0|umemphy|uio_pads|uaddr_cmd_pads|address_gen[4].acv_ac_ldc                                 ; 10    ; 0              ; 1            ; 0              ; 1      ; 0               ; 0             ; 0               ; 0     ; 0              ; 0            ; 0                ; 0                 ;
; u0|hps_0|hps_io|border|hps_sdram_inst|p0|umemphy|uio_pads|uaddr_cmd_pads|address_gen[3].acv_ac_ldc                                 ; 10    ; 0              ; 1            ; 0              ; 1      ; 0               ; 0             ; 0               ; 0     ; 0              ; 0            ; 0                ; 0                 ;
; u0|hps_0|hps_io|border|hps_sdram_inst|p0|umemphy|uio_pads|uaddr_cmd_pads|address_gen[2].acv_ac_ldc                                 ; 10    ; 0              ; 1            ; 0              ; 1      ; 0               ; 0             ; 0               ; 0     ; 0              ; 0            ; 0                ; 0                 ;
; u0|hps_0|hps_io|border|hps_sdram_inst|p0|umemphy|uio_pads|uaddr_cmd_pads|address_gen[1].acv_ac_ldc                                 ; 10    ; 0              ; 1            ; 0              ; 1      ; 0               ; 0             ; 0               ; 0     ; 0              ; 0            ; 0                ; 0                 ;
; u0|hps_0|hps_io|border|hps_sdram_inst|p0|umemphy|uio_pads|uaddr_cmd_pads|address_gen[0].acv_ac_ldc                                 ; 10    ; 0              ; 1            ; 0              ; 1      ; 0               ; 0             ; 0               ; 0     ; 0              ; 0            ; 0                ; 0                 ;
; u0|hps_0|hps_io|border|hps_sdram_inst|p0|umemphy|uio_pads|uaddr_cmd_pads                                                           ; 118   ; 0              ; 5            ; 0              ; 27     ; 0               ; 0             ; 0               ; 0     ; 0              ; 0            ; 0                ; 0                 ;
; u0|hps_0|hps_io|border|hps_sdram_inst|p0|umemphy|uio_pads                                                                          ; 633   ; 58             ; 118          ; 58             ; 220    ; 58              ; 58            ; 58              ; 40    ; 0              ; 0            ; 0                ; 0                 ;
; u0|hps_0|hps_io|border|hps_sdram_inst|p0|umemphy|memphy_ldc                                                                        ; 10    ; 0              ; 1            ; 0              ; 4      ; 0               ; 0             ; 0               ; 0     ; 0              ; 0            ; 0                ; 0                 ;
; u0|hps_0|hps_io|border|hps_sdram_inst|p0|umemphy                                                                                   ; 975   ; 1              ; 2            ; 1              ; 366    ; 1               ; 1             ; 1               ; 40    ; 0              ; 0            ; 0                ; 0                 ;
; u0|hps_0|hps_io|border|hps_sdram_inst|p0                                                                                           ; 878   ; 545            ; 0            ; 545            ; 130    ; 545             ; 545           ; 545             ; 40    ; 0              ; 0            ; 0                ; 0                 ;
; u0|hps_0|hps_io|border|hps_sdram_inst|pll                                                                                          ; 2     ; 1              ; 2            ; 1              ; 12     ; 1               ; 1             ; 1               ; 0     ; 0              ; 0            ; 0                ; 0                 ;
; u0|hps_0|hps_io|border|hps_sdram_inst                                                                                              ; 1     ; 0              ; 0            ; 0              ; 31     ; 0               ; 0             ; 0               ; 40    ; 0              ; 0            ; 0                ; 0                 ;
; u0|hps_0|hps_io|border                                                                                                             ; 0     ; 0              ; 0            ; 0              ; 0      ; 0               ; 0             ; 0               ; 0     ; 0              ; 0            ; 0                ; 0                 ;
; u0|hps_0|hps_io                                                                                                                    ; 1     ; 0              ; 0            ; 0              ; 31     ; 0               ; 0             ; 0               ; 40    ; 0              ; 0            ; 0                ; 0                 ;
; u0|hps_0|fpga_interfaces                                                                                                           ; 67    ; 0              ; 0            ; 0              ; 157    ; 0               ; 0             ; 0               ; 0     ; 0              ; 0            ; 0                ; 0                 ;
; u0|hps_0                                                                                                                           ; 68    ; 0              ; 0            ; 0              ; 188    ; 0               ; 0             ; 0               ; 40    ; 0              ; 0            ; 0                ; 0                 ;
; u0|ab_avalon_interface_0|ab_instance                                                                                               ; 34    ; 16             ; 18           ; 16             ; 0      ; 16              ; 16            ; 16              ; 0     ; 0              ; 0            ; 0                ; 0                 ;
; u0|ab_avalon_interface_0                                                                                                           ; 29    ; 0              ; 1            ; 0              ; 32     ; 0               ; 0             ; 0               ; 0     ; 0              ; 0            ; 0                ; 0                 ;
; u0                                                                                                                                 ; 20    ; 0              ; 0            ; 0              ; 57     ; 0               ; 0             ; 0               ; 40    ; 0              ; 0            ; 0                ; 0                 ;
+------------------------------------------------------------------------------------------------------------------------------------+-------+----------------+--------------+----------------+--------+-----------------+---------------+-----------------+-------+----------------+--------------+------------------+-------------------+
