Flow report for HPS_VGA_SDRAM
Fri Feb 21 17:22:22 2020
Quartus Prime Version 16.1.0 Build 196 10/24/2016 SJ Lite Edition


---------------------
; Table of Contents ;
---------------------
  1. Legal Notice
  2. Flow Summary
  3. Flow Settings
  4. Flow Non-Default Global Settings
  5. Flow Elapsed Time
  6. Flow OS Summary
  7. Flow Log
  8. Flow Messages
  9. Flow Suppressed Messages



----------------
; Legal Notice ;
----------------
Copyright (C) 2016  Intel Corporation. All rights reserved.
Your use of Intel Corporation's design tools, logic functions 
and other software and tools, and its AMPP partner logic 
functions, and any output files from any of the foregoing 
(including device programming or simulation files), and any 
associated documentation or information are expressly subject 
to the terms and conditions of the Intel Program License 
Subscription Agreement, the Intel Quartus Prime License Agreement,
the Intel MegaCore Function License Agreement, or other 
applicable license agreement, including, without limitation, 
that your use is for the sole purpose of programming logic 
devices manufactured by Intel and sold by Intel or its 
authorized distributors.  Please refer to the applicable 
agreement for further details.



+-------------------------------------------------------------------------------+
; Flow Summary                                                                  ;
+---------------------------------+---------------------------------------------+
; Flow Status                     ; Successful - Fri Feb 21 17:21:53 2020       ;
; Quartus Prime Version           ; 16.1.0 Build 196 10/24/2016 SJ Lite Edition ;
; Revision Name                   ; HPS_VGA_SDRAM                               ;
; Top-level Entity Name           ; HPS_VGA_SDRAM                               ;
; Family                          ; Cyclone V                                   ;
; Device                          ; 5CSEMA5F31C6                                ;
; Timing Models                   ; Final                                       ;
; Logic utilization (in ALMs)     ; 415 / 32,070 ( 1 % )                        ;
; Total registers                 ; 636                                         ;
; Total pins                      ; 83 / 457 ( 18 % )                           ;
; Total virtual pins              ; 0                                           ;
; Total block memory bits         ; 0 / 4,065,280 ( 0 % )                       ;
; Total DSP Blocks                ; 0 / 87 ( 0 % )                              ;
; Total HSSI RX PCSs              ; 0                                           ;
; Total HSSI PMA RX Deserializers ; 0                                           ;
; Total HSSI TX PCSs              ; 0                                           ;
; Total HSSI PMA TX Serializers   ; 0                                           ;
; Total PLLs                      ; 0 / 6 ( 0 % )                               ;
; Total DLLs                      ; 1 / 4 ( 25 % )                              ;
+---------------------------------+---------------------------------------------+


+-----------------------------------------+
; Flow Settings                           ;
+-------------------+---------------------+
; Option            ; Setting             ;
+-------------------+---------------------+
; Start date & time ; 02/21/2020 17:17:33 ;
; Main task         ; Compilation         ;
; Revision Name     ; HPS_VGA_SDRAM       ;
+-------------------+---------------------+


+----------------------------------------------------------------------------------------------------------------------------------------------------------------------------------------------------------------+
; Flow Non-Default Global Settings                                                                                                                                                                               ;
+---------------------------------------+-------------------------------------------------------------------------------------------------------------+---------------+-----------------------------+------------+
; Assignment Name                       ; Value                                                                                                       ; Default Value ; Entity Name                 ; Section Id ;
+---------------------------------------+-------------------------------------------------------------------------------------------------------------+---------------+-----------------------------+------------+
; COMPILER_SIGNATURE_ID                 ; 128454781042863.158230185313108                                                                             ; --            ; --                          ; --         ;
; ECO_REGENERATE_REPORT                 ; On                                                                                                          ; Off           ; --                          ; --         ;
; HPS_ISW_FILE                          ; //dc/Roaming$/dp0110316/HPS_VGA_SDRAM/hps_pio/synthesis/submodules/sequencer/alt_types.pre.h                ; --            ; hps_pio_hps_0_hps_io_border ; --         ;
; HPS_ISW_FILE                          ; //dc/Roaming$/dp0110316/HPS_VGA_SDRAM/hps_pio/synthesis/submodules/sequencer/emif.pre.xml                   ; --            ; hps_pio_hps_0_hps_io_border ; --         ;
; HPS_ISW_FILE                          ; //dc/Roaming$/dp0110316/HPS_VGA_SDRAM/hps_pio/synthesis/submodules/sequencer/sdram_io.pre.h                 ; --            ; hps_pio_hps_0_hps_io_border ; --         ;
; HPS_ISW_FILE                          ; //dc/Roaming$/dp0110316/HPS_VGA_SDRAM/hps_pio/synthesis/submodules/sequencer/sequencer.pre.c                ; --            ; hps_pio_hps_0_hps_io_border ; --         ;
; HPS_ISW_FILE                          ; //dc/Roaming$/dp0110316/HPS_VGA_SDRAM/hps_pio/synthesis/submodules/sequencer/sequencer.pre.h                ; --            ; hps_pio_hps_0_hps_io_border ; --         ;
; HPS_ISW_FILE                          ; //dc/Roaming$/dp0110316/HPS_VGA_SDRAM/hps_pio/synthesis/submodules/sequencer/sequencer_auto.pre.h           ; --            ; hps_pio_hps_0_hps_io_border ; --         ;
; HPS_ISW_FILE                          ; //dc/Roaming$/dp0110316/HPS_VGA_SDRAM/hps_pio/synthesis/submodules/sequencer/sequencer_auto_ac_init.pre.c   ; --            ; hps_pio_hps_0_hps_io_border ; --         ;
; HPS_ISW_FILE                          ; //dc/Roaming$/dp0110316/HPS_VGA_SDRAM/hps_pio/synthesis/submodules/sequencer/sequencer_auto_inst_init.pre.c ; --            ; hps_pio_hps_0_hps_io_border ; --         ;
; HPS_ISW_FILE                          ; //dc/Roaming$/dp0110316/HPS_VGA_SDRAM/hps_pio/synthesis/submodules/sequencer/sequencer_defines.pre.h        ; --            ; hps_pio_hps_0_hps_io_border ; --         ;
; HPS_ISW_FILE                          ; //dc/Roaming$/dp0110316/HPS_VGA_SDRAM/hps_pio/synthesis/submodules/sequencer/system.pre.h                   ; --            ; hps_pio_hps_0_hps_io_border ; --         ;
; HPS_ISW_FILE                          ; //dc/Roaming$/dp0110316/HPS_VGA_SDRAM/hps_pio/synthesis/submodules/sequencer/tclrpt.pre.c                   ; --            ; hps_pio_hps_0_hps_io_border ; --         ;
; HPS_ISW_FILE                          ; //dc/Roaming$/dp0110316/HPS_VGA_SDRAM/hps_pio/synthesis/submodules/sequencer/tclrpt.pre.h                   ; --            ; hps_pio_hps_0_hps_io_border ; --         ;
; HPS_ISW_FILE                          ; //dc/Roaming$/dp0110316/HPS_VGA_SDRAM/hps_pio/synthesis/submodules/hps.pre.xml                              ; --            ; hps_pio_hps_0_hps_io_border ; --         ;
; HPS_PARTITION                         ; On                                                                                                          ; --            ; hps_pio_hps_0_hps_io_border ; --         ;
; MAX_CORE_JUNCTION_TEMP                ; 85                                                                                                          ; --            ; --                          ; --         ;
; MIN_CORE_JUNCTION_TEMP                ; 0                                                                                                           ; --            ; --                          ; --         ;
; MISC_FILE                             ; //dc/Roaming$/dp0110316/HPS_VGA_SDRAM/hps_pio/synthesis/../hps_pio.cmp                                      ; --            ; --                          ; --         ;
; MISC_FILE                             ; //dc/Roaming$/dp0110316/HPS_VGA_SDRAM/hps_pio/synthesis/hps_pio_hps_0_hps.svd                               ; --            ; --                          ; --         ;
; MISC_FILE                             ; //dc/Roaming$/dp0110316/HPS_VGA_SDRAM/hps_pio/synthesis/../../hps_pio.qsys                                  ; --            ; --                          ; --         ;
; MISC_FILE                             ; //dc/Roaming$/dp0110316/HPS_VGA_SDRAM/hps_pio/synthesis/submodules/sequencer/alt_types.pre.h                ; --            ; --                          ; --         ;
; MISC_FILE                             ; //dc/Roaming$/dp0110316/HPS_VGA_SDRAM/hps_pio/synthesis/submodules/sequencer/emif.pre.xml                   ; --            ; --                          ; --         ;
; MISC_FILE                             ; //dc/Roaming$/dp0110316/HPS_VGA_SDRAM/hps_pio/synthesis/submodules/sequencer/sdram_io.pre.h                 ; --            ; --                          ; --         ;
; MISC_FILE                             ; //dc/Roaming$/dp0110316/HPS_VGA_SDRAM/hps_pio/synthesis/submodules/sequencer/sequencer.pre.c                ; --            ; --                          ; --         ;
; MISC_FILE                             ; //dc/Roaming$/dp0110316/HPS_VGA_SDRAM/hps_pio/synthesis/submodules/sequencer/sequencer.pre.h                ; --            ; --                          ; --         ;
; MISC_FILE                             ; //dc/Roaming$/dp0110316/HPS_VGA_SDRAM/hps_pio/synthesis/submodules/sequencer/sequencer_auto.pre.h           ; --            ; --                          ; --         ;
; MISC_FILE                             ; //dc/Roaming$/dp0110316/HPS_VGA_SDRAM/hps_pio/synthesis/submodules/sequencer/sequencer_auto_ac_init.pre.c   ; --            ; --                          ; --         ;
; MISC_FILE                             ; //dc/Roaming$/dp0110316/HPS_VGA_SDRAM/hps_pio/synthesis/submodules/sequencer/sequencer_auto_inst_init.pre.c ; --            ; --                          ; --         ;
; MISC_FILE                             ; //dc/Roaming$/dp0110316/HPS_VGA_SDRAM/hps_pio/synthesis/submodules/sequencer/sequencer_defines.pre.h        ; --            ; --                          ; --         ;
; MISC_FILE                             ; //dc/Roaming$/dp0110316/HPS_VGA_SDRAM/hps_pio/synthesis/submodules/sequencer/system.pre.h                   ; --            ; --                          ; --         ;
; MISC_FILE                             ; //dc/Roaming$/dp0110316/HPS_VGA_SDRAM/hps_pio/synthesis/submodules/sequencer/tclrpt.pre.c                   ; --            ; --                          ; --         ;
; MISC_FILE                             ; //dc/Roaming$/dp0110316/HPS_VGA_SDRAM/hps_pio/synthesis/submodules/sequencer/tclrpt.pre.h                   ; --            ; --                          ; --         ;
; MISC_FILE                             ; //dc/Roaming$/dp0110316/HPS_VGA_SDRAM/hps_pio/synthesis/submodules/hps.pre.xml                              ; --            ; --                          ; --         ;
; PARTITION_COLOR                       ; -- (Not supported for targeted family)                                                                      ; --            ; --                          ; Top        ;
; PARTITION_FITTER_PRESERVATION_LEVEL   ; -- (Not supported for targeted family)                                                                      ; --            ; --                          ; Top        ;
; PARTITION_NETLIST_TYPE                ; -- (Not supported for targeted family)                                                                      ; --            ; --                          ; Top        ;
; POWER_BOARD_THERMAL_MODEL             ; None (CONSERVATIVE)                                                                                         ; --            ; --                          ; --         ;
; POWER_PRESET_COOLING_SOLUTION         ; 23 MM HEAT SINK WITH 200 LFPM AIRFLOW                                                                       ; --            ; --                          ; --         ;
; PROJECT_OUTPUT_DIRECTORY              ; output_files                                                                                                ; --            ; --                          ; --         ;
; SLD_FILE                              ; //dc/Roaming$/dp0110316/HPS_VGA_SDRAM/hps_pio/synthesis/hps_pio.regmap                                      ; --            ; --                          ; --         ;
; SLD_FILE                              ; //dc/Roaming$/dp0110316/HPS_VGA_SDRAM/hps_pio/synthesis/hps_pio.debuginfo                                   ; --            ; --                          ; --         ;
; SLD_INFO                              ; QSYS_NAME hps_pio HAS_SOPCINFO 1 GENERATION_ID 1582300045                                                   ; --            ; hps_pio                     ; --         ;
; SOPCINFO_FILE                         ; //dc/Roaming$/dp0110316/HPS_VGA_SDRAM/hps_pio/synthesis/../../hps_pio.sopcinfo                              ; --            ; --                          ; --         ;
; SYNTHESIS_ONLY_QIP                    ; On                                                                                                          ; --            ; --                          ; --         ;
; USE_DLL_FREQUENCY_FOR_DQS_DELAY_CHAIN ; On                                                                                                          ; Off           ; --                          ; --         ;
+---------------------------------------+-------------------------------------------------------------------------------------------------------------+---------------+-----------------------------+------------+


+-------------------------------------------------------------------------------------------------------------------------------+
; Flow Elapsed Time                                                                                                             ;
+---------------------------+--------------+-------------------------+---------------------+------------------------------------+
; Module Name               ; Elapsed Time ; Average Processors Used ; Peak Virtual Memory ; Total CPU Time (on all processors) ;
+---------------------------+--------------+-------------------------+---------------------+------------------------------------+
; Analysis & Synthesis      ; 00:00:27     ; 1.0                     ; 5090 MB             ; 00:00:32                           ;
; Fitter                    ; 00:01:01     ; 1.1                     ; 7329 MB             ; 00:01:41                           ;
; Assembler                 ; 00:00:11     ; 1.0                     ; 4890 MB             ; 00:00:09                           ;
; TimeQuest Timing Analyzer ; 00:00:28     ; 1.1                     ; 5569 MB             ; 00:00:29                           ;
; Total                     ; 00:02:07     ; --                      ; --                  ; 00:02:51                           ;
+---------------------------+--------------+-------------------------+---------------------+------------------------------------+


+-----------------------------------------------------------------------------------------+
; Flow OS Summary                                                                         ;
+---------------------------+------------------+------------+------------+----------------+
; Module Name               ; Machine Hostname ; OS Name    ; OS Version ; Processor type ;
+---------------------------+------------------+------------+------------+----------------+
; Analysis & Synthesis      ; lab1204-3        ; Windows 10 ; 10.0       ; x86_64         ;
; Fitter                    ; lab1204-3        ; Windows 10 ; 10.0       ; x86_64         ;
; Assembler                 ; lab1204-3        ; Windows 10 ; 10.0       ; x86_64         ;
; TimeQuest Timing Analyzer ; lab1204-3        ; Windows 10 ; 10.0       ; x86_64         ;
+---------------------------+------------------+------------+------------+----------------+


------------
; Flow Log ;
------------
quartus_map --read_settings_files=on --write_settings_files=off HPS_VGA_SDRAM -c HPS_VGA_SDRAM
quartus_fit --read_settings_files=off --write_settings_files=off HPS_VGA_SDRAM -c HPS_VGA_SDRAM
quartus_asm --read_settings_files=off --write_settings_files=off HPS_VGA_SDRAM -c HPS_VGA_SDRAM
quartus_sta HPS_VGA_SDRAM -c HPS_VGA_SDRAM



