Flow report for VideBox_presentable
Mon Mar 16 00:39:25 2020
Quartus Prime Version 17.0.0 Build 595 04/25/2017 SJ Lite Edition


---------------------
; Table of Contents ;
---------------------
  1. Legal Notice
  2. Flow Summary
  3. Flow Settings
  4. Flow Non-Default Global Settings
  5. Flow Elapsed Time
  6. Flow OS Summary
  7. Flow Log
  8. Flow Messages
  9. Flow Suppressed Messages



----------------
; Legal Notice ;
----------------
Copyright (C) 2017  Intel Corporation. All rights reserved.
Your use of Intel Corporation's design tools, logic functions 
and other software and tools, and its AMPP partner logic 
functions, and any output files from any of the foregoing 
(including device programming or simulation files), and any 
associated documentation or information are expressly subject 
to the terms and conditions of the Intel Program License 
Subscription Agreement, the Intel Quartus Prime License Agreement,
the Intel MegaCore Function License Agreement, or other 
applicable license agreement, including, without limitation, 
that your use is for the sole purpose of programming logic 
devices manufactured by Intel and sold by Intel or its 
authorized distributors.  Please refer to the applicable 
agreement for further details.



+-------------------------------------------------------------------------------+
; Flow Summary                                                                  ;
+---------------------------------+---------------------------------------------+
; Flow Status                     ; Successful - Mon Mar 16 00:37:45 2020       ;
; Quartus Prime Version           ; 17.0.0 Build 595 04/25/2017 SJ Lite Edition ;
; Revision Name                   ; VideBox_presentable                         ;
; Top-level Entity Name           ; VideoBox_presentable                        ;
; Family                          ; Cyclone V                                   ;
; Device                          ; 5CSEMA5F31C6                                ;
; Timing Models                   ; Final                                       ;
; Logic utilization (in ALMs)     ; 3,183 / 32,070 ( 10 % )                     ;
; Total registers                 ; 2792                                        ;
; Total pins                      ; 165 / 457 ( 36 % )                          ;
; Total virtual pins              ; 0                                           ;
; Total block memory bits         ; 72,064 / 4,065,280 ( 2 % )                  ;
; Total DSP Blocks                ; 12 / 87 ( 14 % )                            ;
; Total HSSI RX PCSs              ; 0                                           ;
; Total HSSI PMA RX Deserializers ; 0                                           ;
; Total HSSI TX PCSs              ; 0                                           ;
; Total HSSI PMA TX Serializers   ; 0                                           ;
; Total PLLs                      ; 2 / 6 ( 33 % )                              ;
; Total DLLs                      ; 1 / 4 ( 25 % )                              ;
+---------------------------------+---------------------------------------------+


+-----------------------------------------+
; Flow Settings                           ;
+-------------------+---------------------+
; Option            ; Setting             ;
+-------------------+---------------------+
; Start date & time ; 03/16/2020 00:27:31 ;
; Main task         ; Compilation         ;
; Revision Name     ; VideBox_presentable ;
+-------------------+---------------------+


+--------------------------------------------------------------------------------------------------------------------------------------------------------------------------------+
; Flow Non-Default Global Settings                                                                                                                                               ;
+---------------------------------------+------------------------------------------------------------------------+---------------------+----------------------------+------------+
; Assignment Name                       ; Value                                                                  ; Default Value       ; Entity Name                ; Section Id ;
+---------------------------------------+------------------------------------------------------------------------+---------------------+----------------------------+------------+
; COMPILER_SIGNATURE_ID                 ; 277807421360066.158431484414808                                        ; --                  ; --                         ; --         ;
; ECO_REGENERATE_REPORT                 ; On                                                                     ; Off                 ; --                         ; --         ;
; HPS_ISW_FILE                          ; VideoBox/synthesis/submodules/sequencer/alt_types.pre.h                ; --                  ; VideoBox_hps_hps_io_border ; --         ;
; HPS_ISW_FILE                          ; VideoBox/synthesis/submodules/sequencer/emif.pre.xml                   ; --                  ; VideoBox_hps_hps_io_border ; --         ;
; HPS_ISW_FILE                          ; VideoBox/synthesis/submodules/sequencer/sdram_io.pre.h                 ; --                  ; VideoBox_hps_hps_io_border ; --         ;
; HPS_ISW_FILE                          ; VideoBox/synthesis/submodules/sequencer/sequencer.pre.c                ; --                  ; VideoBox_hps_hps_io_border ; --         ;
; HPS_ISW_FILE                          ; VideoBox/synthesis/submodules/sequencer/sequencer.pre.h                ; --                  ; VideoBox_hps_hps_io_border ; --         ;
; HPS_ISW_FILE                          ; VideoBox/synthesis/submodules/sequencer/sequencer_auto.pre.h           ; --                  ; VideoBox_hps_hps_io_border ; --         ;
; HPS_ISW_FILE                          ; VideoBox/synthesis/submodules/sequencer/sequencer_auto_ac_init.pre.c   ; --                  ; VideoBox_hps_hps_io_border ; --         ;
; HPS_ISW_FILE                          ; VideoBox/synthesis/submodules/sequencer/sequencer_auto_inst_init.pre.c ; --                  ; VideoBox_hps_hps_io_border ; --         ;
; HPS_ISW_FILE                          ; VideoBox/synthesis/submodules/sequencer/sequencer_defines.pre.h        ; --                  ; VideoBox_hps_hps_io_border ; --         ;
; HPS_ISW_FILE                          ; VideoBox/synthesis/submodules/sequencer/system.pre.h                   ; --                  ; VideoBox_hps_hps_io_border ; --         ;
; HPS_ISW_FILE                          ; VideoBox/synthesis/submodules/sequencer/tclrpt.pre.c                   ; --                  ; VideoBox_hps_hps_io_border ; --         ;
; HPS_ISW_FILE                          ; VideoBox/synthesis/submodules/sequencer/tclrpt.pre.h                   ; --                  ; VideoBox_hps_hps_io_border ; --         ;
; HPS_ISW_FILE                          ; VideoBox/synthesis/submodules/hps.pre.xml                              ; --                  ; VideoBox_hps_hps_io_border ; --         ;
; HPS_PARTITION                         ; On                                                                     ; --                  ; VideoBox_hps_hps_io_border ; --         ;
; MAX_CORE_JUNCTION_TEMP                ; 85                                                                     ; --                  ; --                         ; --         ;
; MIN_CORE_JUNCTION_TEMP                ; 0                                                                      ; --                  ; --                         ; --         ;
; MISC_FILE                             ; VideoBox/synthesis/../VideoBox.cmp                                     ; --                  ; --                         ; --         ;
; MISC_FILE                             ; VideoBox/synthesis/../../output_files/C                                ; --                  ; --                         ; --         ;
; MISC_FILE                             ; VideoBox/synthesis/VideoBox_hps_hps.svd                                ; --                  ; --                         ; --         ;
; MISC_FILE                             ; VideoBox/synthesis/../../VideoBox.qsys                                 ; --                  ; --                         ; --         ;
; MISC_FILE                             ; VideoBox/synthesis/submodules/sequencer/alt_types.pre.h                ; --                  ; --                         ; --         ;
; MISC_FILE                             ; VideoBox/synthesis/submodules/sequencer/emif.pre.xml                   ; --                  ; --                         ; --         ;
; MISC_FILE                             ; VideoBox/synthesis/submodules/sequencer/sdram_io.pre.h                 ; --                  ; --                         ; --         ;
; MISC_FILE                             ; VideoBox/synthesis/submodules/sequencer/sequencer.pre.c                ; --                  ; --                         ; --         ;
; MISC_FILE                             ; VideoBox/synthesis/submodules/sequencer/sequencer.pre.h                ; --                  ; --                         ; --         ;
; MISC_FILE                             ; VideoBox/synthesis/submodules/sequencer/sequencer_auto.pre.h           ; --                  ; --                         ; --         ;
; MISC_FILE                             ; VideoBox/synthesis/submodules/sequencer/sequencer_auto_ac_init.pre.c   ; --                  ; --                         ; --         ;
; MISC_FILE                             ; VideoBox/synthesis/submodules/sequencer/sequencer_auto_inst_init.pre.c ; --                  ; --                         ; --         ;
; MISC_FILE                             ; VideoBox/synthesis/submodules/sequencer/sequencer_defines.pre.h        ; --                  ; --                         ; --         ;
; MISC_FILE                             ; VideoBox/synthesis/submodules/sequencer/system.pre.h                   ; --                  ; --                         ; --         ;
; MISC_FILE                             ; VideoBox/synthesis/submodules/sequencer/tclrpt.pre.c                   ; --                  ; --                         ; --         ;
; MISC_FILE                             ; VideoBox/synthesis/submodules/sequencer/tclrpt.pre.h                   ; --                  ; --                         ; --         ;
; MISC_FILE                             ; VideoBox/synthesis/submodules/hps.pre.xml                              ; --                  ; --                         ; --         ;
; PARTITION_COLOR                       ; -- (Not supported for targeted family)                                 ; --                  ; VideoBox_presentable       ; Top        ;
; PARTITION_FITTER_PRESERVATION_LEVEL   ; -- (Not supported for targeted family)                                 ; --                  ; VideoBox_presentable       ; Top        ;
; PARTITION_NETLIST_TYPE                ; -- (Not supported for targeted family)                                 ; --                  ; VideoBox_presentable       ; Top        ;
; POWER_BOARD_THERMAL_MODEL             ; None (CONSERVATIVE)                                                    ; --                  ; --                         ; --         ;
; POWER_PRESET_COOLING_SOLUTION         ; 23 MM HEAT SINK WITH 200 LFPM AIRFLOW                                  ; --                  ; --                         ; --         ;
; PROJECT_OUTPUT_DIRECTORY              ; output_files                                                           ; --                  ; --                         ; --         ;
; SLD_FILE                              ; VideoBox/synthesis/VideoBox.regmap                                     ; --                  ; --                         ; --         ;
; SLD_FILE                              ; VideoBox/synthesis/VideoBox.debuginfo                                  ; --                  ; --                         ; --         ;
; SLD_INFO                              ; QSYS_NAME VideoBox HAS_SOPCINFO 1 GENERATION_ID 1584314734             ; --                  ; VideoBox                   ; --         ;
; SOPCINFO_FILE                         ; VideoBox/synthesis/../../VideoBox.sopcinfo                             ; --                  ; --                         ; --         ;
; SYNTHESIS_ONLY_QIP                    ; On                                                                     ; --                  ; --                         ; --         ;
; TOP_LEVEL_ENTITY                      ; VideoBox_presentable                                                   ; VideBox_presentable ; --                         ; --         ;
; USE_DLL_FREQUENCY_FOR_DQS_DELAY_CHAIN ; On                                                                     ; Off                 ; --                         ; --         ;
+---------------------------------------+------------------------------------------------------------------------+---------------------+----------------------------+------------+


+-------------------------------------------------------------------------------------------------------------------------------+
; Flow Elapsed Time                                                                                                             ;
+---------------------------+--------------+-------------------------+---------------------+------------------------------------+
; Module Name               ; Elapsed Time ; Average Processors Used ; Peak Virtual Memory ; Total CPU Time (on all processors) ;
+---------------------------+--------------+-------------------------+---------------------+------------------------------------+
; Analysis & Synthesis      ; 00:01:00     ; 1.0                     ; 5211 MB             ; 00:01:05                           ;
; Fitter                    ; 00:04:07     ; 1.1                     ; 7596 MB             ; 00:04:01                           ;
; Assembler                 ; 00:00:36     ; 1.0                     ; 4928 MB             ; 00:00:17                           ;
; TimeQuest Timing Analyzer ; 00:01:36     ; 1.2                     ; 5802 MB             ; 00:01:00                           ;
; Total                     ; 00:07:19     ; --                      ; --                  ; 00:06:23                           ;
+---------------------------+--------------+-------------------------+---------------------+------------------------------------+


+-----------------------------------------------------------------------------------------+
; Flow OS Summary                                                                         ;
+---------------------------+------------------+------------+------------+----------------+
; Module Name               ; Machine Hostname ; OS Name    ; OS Version ; Processor type ;
+---------------------------+------------------+------------+------------+----------------+
; Analysis & Synthesis      ; DESKTOP-5HRJIEF  ; Windows 10 ; 10.0       ; x86_64         ;
; Fitter                    ; DESKTOP-5HRJIEF  ; Windows 10 ; 10.0       ; x86_64         ;
; Assembler                 ; DESKTOP-5HRJIEF  ; Windows 10 ; 10.0       ; x86_64         ;
; TimeQuest Timing Analyzer ; DESKTOP-5HRJIEF  ; Windows 10 ; 10.0       ; x86_64         ;
+---------------------------+------------------+------------+------------+----------------+


------------
; Flow Log ;
------------
quartus_map --read_settings_files=on --write_settings_files=off VideBox_presentable -c VideBox_presentable
quartus_fit --read_settings_files=off --write_settings_files=off VideBox_presentable -c VideBox_presentable
quartus_asm --read_settings_files=off --write_settings_files=off VideBox_presentable -c VideBox_presentable
quartus_sta VideBox_presentable -c VideBox_presentable



